Introduction à la modélisation statistique bayésienne
…
# the empirically-based summaries
d_plot <-
  df1 %>%
  group_by(actor, condition, prosoc_left) %>%
  summarise(pulled_left = mean(pulled_left)) %>%
  mutate(x_axis = str_c(prosoc_left, condition, sep = "/")) %>%
  mutate(x_axis = factor(x_axis, levels = c("0/0", "1/0", "0/1", "1/1")))
d_plot

# A tibble: 28 x 5
# Groups:   actor, condition [14]
   actor condition prosoc_left pulled_left x_axis
   <int>     <int>       <int>       <dbl> <fct> 
 1     1         0           0       0.333 0/0   
 2     1         0           1       0.5   1/0   
 3     1         1           0       0.278 0/1   
 4     1         1           1       0.556 1/1   
 5     2         0           0       1     0/0   
 6     2         0           1       1     1/0   
 7     2         1           0       1     0/1   
 8     2         1           1       1     1/1   
 9     3         0           0       0.278 0/0   
10     3         0           1       0.611 1/0   
# … with 18 more rows
…
